^C:\USERS\AHMETCEM\DOWNLOADS\COCOS2D-X-2.1.5\COCOS2D-X-2.1.5\DEBUG.WIN32\LIBCOCOS2D.LIB|C:\USERS\AHMETCEM\DOWNLOADS\COCOS2D-X-2.1.5\COCOS2D-X-2.1.5\DEBUG.WIN32\LIBCOCOSDENSHION.LIB|C:\USERS\AHMETCEM\DOWNLOADS\COCOS2D-X-2.1.5\COCOS2D-X-2.1.5\SAMPLES\CPP\HELLOCPP\PROJ.WIN32\DEBUG.WIN32\APPDELEGATE.OBJ|C:\USERS\AHMETCEM\DOWNLOADS\COCOS2D-X-2.1.5\COCOS2D-X-2.1.5\SAMPLES\CPP\HELLOCPP\PROJ.WIN32\DEBUG.WIN32\EXTENDEDPARALLAX.OBJ|C:\USERS\AHMETCEM\DOWNLOADS\COCOS2D-X-2.1.5\COCOS2D-X-2.1.5\SAMPLES\CPP\HELLOCPP\PROJ.WIN32\DEBUG.WIN32\HELLOWORLDSCENE.OBJ|C:\USERS\AHMETCEM\DOWNLOADS\COCOS2D-X-2.1.5\COCOS2D-X-2.1.5\SAMPLES\CPP\HELLOCPP\PROJ.WIN32\DEBUG.WIN32\MAIN.OBJ|C:\USERS\AHMETCEM\DOWNLOADS\COCOS2D-X-2.1.5\COCOS2D-X-2.1.5\SAMPLES\CPP\HELLOCPP\PROJ.WIN32\DEBUG.WIN32\MAIRPLANE.OBJ|C:\USERS\AHMETCEM\DOWNLOADS\COCOS2D-X-2.1.5\COCOS2D-X-2.1.5\SAMPLES\CPP\HELLOCPP\PROJ.WIN32\DEBUG.WIN32\MCONTACTLISTENER.OBJ|C:\USERS\AHMETCEM\DOWNLOADS\COCOS2D-X-2.1.5\COCOS2D-X-2.1.5\SAMPLES\CPP\HELLOCPP\PROJ.WIN32\DEBUG.WIN32\MCREDITSLAYER.OBJ|C:\USERS\AHMETCEM\DOWNLOADS\COCOS2D-X-2.1.5\COCOS2D-X-2.1.5\SAMPLES\CPP\HELLOCPP\PROJ.WIN32\DEBUG.WIN32\MGAMEOVERLAYER.OBJ|C:\USERS\AHMETCEM\DOWNLOADS\COCOS2D-X-2.1.5\COCOS2D-X-2.1.5\SAMPLES\CPP\HELLOCPP\PROJ.WIN32\DEBUG.WIN32\MINDEPENDENTLAYER.OBJ|C:\USERS\AHMETCEM\DOWNLOADS\COCOS2D-X-2.1.5\COCOS2D-X-2.1.5\SAMPLES\CPP\HELLOCPP\PROJ.WIN32\DEBUG.WIN32\MLAYERCOLOR.OBJ|C:\USERS\AHMETCEM\DOWNLOADS\COCOS2D-X-2.1.5\COCOS2D-X-2.1.5\SAMPLES\CPP\HELLOCPP\PROJ.WIN32\DEBUG.WIN32\MLEVEL.OBJ|C:\USERS\AHMETCEM\DOWNLOADS\COCOS2D-X-2.1.5\COCOS2D-X-2.1.5\SAMPLES\CPP\HELLOCPP\PROJ.WIN32\DEBUG.WIN32\MLEVELOBJECT.OBJ|C:\USERS\AHMETCEM\DOWNLOADS\COCOS2D-X-2.1.5\COCOS2D-X-2.1.5\SAMPLES\CPP\HELLOCPP\PROJ.WIN32\DEBUG.WIN32\MMENUSCENE.OBJ|C:\USERS\AHMETCEM\DOWNLOADS\COCOS2D-X-2.1.5\COCOS2D-X-2.1.5\SAMPLES\CPP\HELLOCPP\PROJ.WIN32\DEBUG.WIN32\MOPTIONSLAYER.OBJ|C:\USERS\AHMETCEM\DOWNLOADS\COCOS2D-X-2.1.5\COCOS2D-X-2.1.5\SAMPLES\CPP\HELLOCPP\PROJ.WIN32\DEBUG.WIN32\MPAUSELAYER.OBJ|C:\USERS\AHMETCEM\DOWNLOADS\COCOS2D-X-2.1.5\COCOS2D-X-2.1.5\SAMPLES\CPP\HELLOCPP\PROJ.WIN32\DEBUG.WIN32\MSPLASHSCREEN.OBJ|C:\USERS\AHMETCEM\DOWNLOADS\COCOS2D-X-2.1.5\COCOS2D-X-2.1.5\SAMPLES\CPP\HELLOCPP\PROJ.WIN32\DEBUG.WIN32\MTIMETRIALSCENE.OBJ
C:\USERS\AHMETCEM\DOWNLOADS\COCOS2D-X-2.1.5\COCOS2D-X-2.1.5\DEBUG.WIN32\LIBCOCOS2D.LIB
C:\USERS\AHMETCEM\DOWNLOADS\COCOS2D-X-2.1.5\COCOS2D-X-2.1.5\DEBUG.WIN32\LIBEXTENSIONS.LIB
C:\PROGRAM FILES (X86)\MICROSOFT SDKS\WINDOWS\V7.1A\LIB\OPENGL32.LIB
C:\USERS\AHMETCEM\DOWNLOADS\COCOS2D-X-2.1.5\COCOS2D-X-2.1.5\DEBUG.WIN32\GLEW32.LIB
C:\USERS\AHMETCEM\DOWNLOADS\COCOS2D-X-2.1.5\COCOS2D-X-2.1.5\DEBUG.WIN32\LIBBOX2D.LIB
C:\USERS\AHMETCEM\DOWNLOADS\COCOS2D-X-2.1.5\COCOS2D-X-2.1.5\DEBUG.WIN32\LIBCOCOSDENSHION.LIB
C:\PROGRAM FILES (X86)\MICROSOFT SDKS\WINDOWS\V7.1A\LIB\KERNEL32.LIB
C:\PROGRAM FILES (X86)\MICROSOFT SDKS\WINDOWS\V7.1A\LIB\USER32.LIB
C:\PROGRAM FILES (X86)\MICROSOFT SDKS\WINDOWS\V7.1A\LIB\GDI32.LIB
C:\PROGRAM FILES (X86)\MICROSOFT SDKS\WINDOWS\V7.1A\LIB\WINSPOOL.LIB
C:\PROGRAM FILES (X86)\MICROSOFT SDKS\WINDOWS\V7.1A\LIB\COMDLG32.LIB
C:\PROGRAM FILES (X86)\MICROSOFT SDKS\WINDOWS\V7.1A\LIB\ADVAPI32.LIB
C:\PROGRAM FILES (X86)\MICROSOFT SDKS\WINDOWS\V7.1A\LIB\SHELL32.LIB
C:\PROGRAM FILES (X86)\MICROSOFT SDKS\WINDOWS\V7.1A\LIB\OLE32.LIB
C:\PROGRAM FILES (X86)\MICROSOFT SDKS\WINDOWS\V7.1A\LIB\OLEAUT32.LIB
C:\PROGRAM FILES (X86)\MICROSOFT SDKS\WINDOWS\V7.1A\LIB\UUID.LIB
C:\PROGRAM FILES (X86)\MICROSOFT SDKS\WINDOWS\V7.1A\LIB\ODBC32.LIB
C:\PROGRAM FILES (X86)\MICROSOFT SDKS\WINDOWS\V7.1A\LIB\ODBCCP32.LIB
C:\USERS\AHMETCEM\DOWNLOADS\COCOS2D-X-2.1.5\COCOS2D-X-2.1.5\SAMPLES\CPP\HELLOCPP\PROJ.WIN32\DEBUG.WIN32\APPDELEGATE.OBJ
C:\USERS\AHMETCEM\DOWNLOADS\COCOS2D-X-2.1.5\COCOS2D-X-2.1.5\SAMPLES\CPP\HELLOCPP\PROJ.WIN32\DEBUG.WIN32\HELLOWORLDSCENE.OBJ
C:\USERS\AHMETCEM\DOWNLOADS\COCOS2D-X-2.1.5\COCOS2D-X-2.1.5\SAMPLES\CPP\HELLOCPP\PROJ.WIN32\DEBUG.WIN32\EXTENDEDPARALLAX.OBJ
C:\USERS\AHMETCEM\DOWNLOADS\COCOS2D-X-2.1.5\COCOS2D-X-2.1.5\SAMPLES\CPP\HELLOCPP\PROJ.WIN32\DEBUG.WIN32\MAIN.OBJ
C:\USERS\AHMETCEM\DOWNLOADS\COCOS2D-X-2.1.5\COCOS2D-X-2.1.5\SAMPLES\CPP\HELLOCPP\PROJ.WIN32\DEBUG.WIN32\MAIRPLANE.OBJ
C:\USERS\AHMETCEM\DOWNLOADS\COCOS2D-X-2.1.5\COCOS2D-X-2.1.5\SAMPLES\CPP\HELLOCPP\PROJ.WIN32\DEBUG.WIN32\MCONTACTLISTENER.OBJ
C:\USERS\AHMETCEM\DOWNLOADS\COCOS2D-X-2.1.5\COCOS2D-X-2.1.5\SAMPLES\CPP\HELLOCPP\PROJ.WIN32\DEBUG.WIN32\MCREDITSLAYER.OBJ
C:\USERS\AHMETCEM\DOWNLOADS\COCOS2D-X-2.1.5\COCOS2D-X-2.1.5\SAMPLES\CPP\HELLOCPP\PROJ.WIN32\DEBUG.WIN32\MGAMEOVERLAYER.OBJ
C:\USERS\AHMETCEM\DOWNLOADS\COCOS2D-X-2.1.5\COCOS2D-X-2.1.5\SAMPLES\CPP\HELLOCPP\PROJ.WIN32\DEBUG.WIN32\MINDEPENDENTLAYER.OBJ
C:\USERS\AHMETCEM\DOWNLOADS\COCOS2D-X-2.1.5\COCOS2D-X-2.1.5\SAMPLES\CPP\HELLOCPP\PROJ.WIN32\DEBUG.WIN32\MLAYERCOLOR.OBJ
C:\USERS\AHMETCEM\DOWNLOADS\COCOS2D-X-2.1.5\COCOS2D-X-2.1.5\SAMPLES\CPP\HELLOCPP\PROJ.WIN32\DEBUG.WIN32\MLEVEL.OBJ
C:\USERS\AHMETCEM\DOWNLOADS\COCOS2D-X-2.1.5\COCOS2D-X-2.1.5\SAMPLES\CPP\HELLOCPP\PROJ.WIN32\DEBUG.WIN32\MLEVELOBJECT.OBJ
C:\USERS\AHMETCEM\DOWNLOADS\COCOS2D-X-2.1.5\COCOS2D-X-2.1.5\SAMPLES\CPP\HELLOCPP\PROJ.WIN32\DEBUG.WIN32\MMENUSCENE.OBJ
C:\USERS\AHMETCEM\DOWNLOADS\COCOS2D-X-2.1.5\COCOS2D-X-2.1.5\SAMPLES\CPP\HELLOCPP\PROJ.WIN32\DEBUG.WIN32\MOPTIONSLAYER.OBJ
C:\USERS\AHMETCEM\DOWNLOADS\COCOS2D-X-2.1.5\COCOS2D-X-2.1.5\SAMPLES\CPP\HELLOCPP\PROJ.WIN32\DEBUG.WIN32\MPAUSELAYER.OBJ
C:\USERS\AHMETCEM\DOWNLOADS\COCOS2D-X-2.1.5\COCOS2D-X-2.1.5\SAMPLES\CPP\HELLOCPP\PROJ.WIN32\DEBUG.WIN32\MSPLASHSCREEN.OBJ
C:\USERS\AHMETCEM\DOWNLOADS\COCOS2D-X-2.1.5\COCOS2D-X-2.1.5\SAMPLES\CPP\HELLOCPP\PROJ.WIN32\DEBUG.WIN32\MTIMETRIALSCENE.OBJ
C:\WINDOWS\SYSTEM32\TZRES.DLL
C:\WINDOWS\GLOBALIZATION\SORTING\SORTDEFAULT.NLS
C:\PROGRAM FILES (X86)\MICROSOFT VISUAL STUDIO 12.0\VC\LIB\MSVCPRTD.LIB
C:\PROGRAM FILES (X86)\MICROSOFT VISUAL STUDIO 12.0\VC\LIB\MSVCRTD.LIB
C:\PROGRAM FILES (X86)\MICROSOFT VISUAL STUDIO 12.0\VC\LIB\OLDNAMES.LIB
